%YAML 1.1
%TAG !u! tag:unity3d.com,2011:
--- !u!74 &7400000
AnimationClip:
  m_ObjectHideFlags: 0
  m_CorrespondingSourceObject: {fileID: 0}
  m_PrefabInstance: {fileID: 0}
  m_PrefabAsset: {fileID: 0}
  m_Name: doublespiral
  serializedVersion: 6
  m_Legacy: 0
  m_Compressed: 0
  m_UseHighQualityCurve: 1
  m_RotationCurves: []
  m_CompressedRotationCurves: []
  m_EulerCurves: []
  m_PositionCurves: []
  m_ScaleCurves: []
  m_FloatCurves: []
  m_PPtrCurves:
  - curve:
    - time: 0
      value: {fileID: 21300000, guid: e4b69000e185e4c3ba1a3b45c939de04, type: 3}
    - time: 0.083333336
      value: {fileID: 21300000, guid: c199375fea8854768a11dfee870bf9b2, type: 3}
    - time: 0.16666667
      value: {fileID: 21300000, guid: b9e59136e33794f60956e5ad16e3a248, type: 3}
    - time: 0.25
      value: {fileID: 21300000, guid: 53382de1822854dfc9caebefae85fde1, type: 3}
    - time: 0.33333334
      value: {fileID: 21300000, guid: 252d5a62ad3c643919ab656a526302f6, type: 3}
    - time: 0.41666666
      value: {fileID: 21300000, guid: 14061660e02bd43099d3c17e34a2ac05, type: 3}
    - time: 0.5
      value: {fileID: 21300000, guid: 701eef5242d69474a91ef7633e79628c, type: 3}
    - time: 0.5833333
      value: {fileID: 21300000, guid: 7de72a5097c9e49c885f973288e5f40b, type: 3}
    - time: 0.6666667
      value: {fileID: 21300000, guid: 0ac7265d95e694f77b9a3d8bce654bc2, type: 3}
    attribute: m_Sprite
    path: 
    classID: 114
    script: {fileID: -765806418, guid: f70555f144d8491a825f0804e09c671c, type: 3}
  m_SampleRate: 12
  m_WrapMode: 0
  m_Bounds:
    m_Center: {x: 0, y: 0, z: 0}
    m_Extent: {x: 0, y: 0, z: 0}
  m_ClipBindingConstant:
    genericBindings:
    - serializedVersion: 2
      path: 0
      attribute: 2015549526
      script: {fileID: -765806418, guid: f70555f144d8491a825f0804e09c671c, type: 3}
      typeID: 114
      customType: 0
      isPPtrCurve: 1
    pptrCurveMapping:
    - {fileID: 21300000, guid: e4b69000e185e4c3ba1a3b45c939de04, type: 3}
    - {fileID: 21300000, guid: c199375fea8854768a11dfee870bf9b2, type: 3}
    - {fileID: 21300000, guid: b9e59136e33794f60956e5ad16e3a248, type: 3}
    - {fileID: 21300000, guid: 53382de1822854dfc9caebefae85fde1, type: 3}
    - {fileID: 21300000, guid: 252d5a62ad3c643919ab656a526302f6, type: 3}
    - {fileID: 21300000, guid: 14061660e02bd43099d3c17e34a2ac05, type: 3}
    - {fileID: 21300000, guid: 701eef5242d69474a91ef7633e79628c, type: 3}
    - {fileID: 21300000, guid: 7de72a5097c9e49c885f973288e5f40b, type: 3}
    - {fileID: 21300000, guid: 0ac7265d95e694f77b9a3d8bce654bc2, type: 3}
  m_AnimationClipSettings:
    serializedVersion: 2
    m_AdditiveReferencePoseClip: {fileID: 0}
    m_AdditiveReferencePoseTime: 0
    m_StartTime: 0
    m_StopTime: 0.75
    m_OrientationOffsetY: 0
    m_Level: 0
    m_CycleOffset: 0
    m_HasAdditiveReferencePose: 0
    m_LoopTime: 0
    m_LoopBlend: 0
    m_LoopBlendOrientation: 0
    m_LoopBlendPositionY: 0
    m_LoopBlendPositionXZ: 0
    m_KeepOriginalOrientation: 0
    m_KeepOriginalPositionY: 1
    m_KeepOriginalPositionXZ: 0
    m_HeightFromFeet: 0
    m_Mirror: 0
  m_EditorCurves: []
  m_EulerEditorCurves: []
  m_HasGenericRootTransform: 0
  m_HasMotionFloatCurves: 0
  m_Events:
  - time: 0.75
    functionName: FinishedBattleTransition
    data: 
    objectReferenceParameter: {fileID: 0}
    floatParameter: 0
    intParameter: 0
    messageOptions: 0
