%YAML 1.1
%TAG !u! tag:unity3d.com,2011:
--- !u!74 &7400000
AnimationClip:
  m_ObjectHideFlags: 0
  m_CorrespondingSourceObject: {fileID: 0}
  m_PrefabInstance: {fileID: 0}
  m_PrefabAsset: {fileID: 0}
  m_Name: inspiral
  serializedVersion: 6
  m_Legacy: 0
  m_Compressed: 0
  m_UseHighQualityCurve: 1
  m_RotationCurves: []
  m_CompressedRotationCurves: []
  m_EulerCurves: []
  m_PositionCurves: []
  m_ScaleCurves: []
  m_FloatCurves: []
  m_PPtrCurves:
  - curve:
    - time: 0
      value: {fileID: 21300000, guid: 46bf7b19f42e64116a2e0e586809eda6, type: 3}
    - time: 0.083333336
      value: {fileID: 21300000, guid: 01b25b7005f6246e89dc9932323d6abd, type: 3}
    - time: 0.16666667
      value: {fileID: 21300000, guid: 37fa157397cb9415bb7107b0e0413808, type: 3}
    - time: 0.25
      value: {fileID: 21300000, guid: 75bf3b2d4177449e99912145438da99e, type: 3}
    - time: 0.33333334
      value: {fileID: 21300000, guid: c543ba0f65c284402839249758b1f29e, type: 3}
    - time: 0.41666666
      value: {fileID: 21300000, guid: 4cc44e6a9e1dc4210b3a19b5c2587986, type: 3}
    - time: 0.5
      value: {fileID: 21300000, guid: 418e3dd520c5147b79c43574dfb640cc, type: 3}
    - time: 0.5833333
      value: {fileID: 21300000, guid: 275f31629cd9444f9b5e5400461792cb, type: 3}
    - time: 0.6666667
      value: {fileID: 21300000, guid: 640c8a675cf3c4981a3299aa74a465d0, type: 3}
    - time: 0.75
      value: {fileID: 21300000, guid: 47f911f54855540f086811c77a774243, type: 3}
    - time: 0.8333333
      value: {fileID: 21300000, guid: 1d5b9fc2100194bb48669d8ab6323f28, type: 3}
    - time: 0.9166667
      value: {fileID: 21300000, guid: a5cd52512db2b4726aebdb45b16977fc, type: 3}
    - time: 1
      value: {fileID: 21300000, guid: c8330dca1cbc54ef0b32460db0b705d8, type: 3}
    - time: 1.0833334
      value: {fileID: 21300000, guid: 4c0318768cef64b22942eaa71b82e42e, type: 3}
    - time: 1.1666666
      value: {fileID: 21300000, guid: ff0ea1df17a764d799bd741a29c09748, type: 3}
    - time: 1.25
      value: {fileID: 21300000, guid: 2a3a6f19aa8ef4fbabfe1a64b71b1d57, type: 3}
    - time: 1.3333334
      value: {fileID: 21300000, guid: b3ce0e624168b4eff8f0fd8899669ffe, type: 3}
    - time: 1.4166666
      value: {fileID: 21300000, guid: 5167b242d7b784220972f76bcb1858a2, type: 3}
    - time: 1.5
      value: {fileID: 21300000, guid: c82d3f035cbec4ac3ab34a3ed5c0968a, type: 3}
    - time: 1.5833334
      value: {fileID: 21300000, guid: 8f0a7eb2ff4254b4692e77feeb9b084c, type: 3}
    - time: 1.6666666
      value: {fileID: 21300000, guid: f3e8801cd0fd747b291481743c2e060a, type: 3}
    - time: 1.75
      value: {fileID: 21300000, guid: 628e4af1bf53c40bbacb738d376aec5f, type: 3}
    - time: 1.8333334
      value: {fileID: 21300000, guid: 911ad38ed810f4fa8ad9e14c278e9fd9, type: 3}
    - time: 1.9166666
      value: {fileID: 21300000, guid: 3bc18d8745f5247ada6f2c34495fa3c1, type: 3}
    - time: 2
      value: {fileID: 21300000, guid: 9dd9dec2f28f540c49fa3a31fb4af394, type: 3}
    - time: 2.0833333
      value: {fileID: 21300000, guid: c5adb3414350940ee91fd4e1e00d9dd9, type: 3}
    - time: 2.1666667
      value: {fileID: 21300000, guid: fa8986ba2763d4808a375deac3a7cf64, type: 3}
    - time: 2.25
      value: {fileID: 21300000, guid: 800d869ca4c5c47158d6fd07b3e4a6ec, type: 3}
    - time: 2.3333333
      value: {fileID: 21300000, guid: 82b06237cb96047d394c88f1293f3397, type: 3}
    - time: 2.4166667
      value: {fileID: 21300000, guid: 725e85c68a59c4655917c8079f777890, type: 3}
    - time: 2.5
      value: {fileID: 21300000, guid: 0a606c2fb408d47d4bb85af059ff3324, type: 3}
    - time: 2.5833333
      value: {fileID: 21300000, guid: 5563ad9f2856440c0999c9f6ce8763e6, type: 3}
    - time: 2.6666667
      value: {fileID: 21300000, guid: 102367a80258d45339e7f6c0cf09d6ae, type: 3}
    - time: 2.75
      value: {fileID: 21300000, guid: bc3f2e77469d543688b90ebd26eec781, type: 3}
    attribute: m_Sprite
    path: 
    classID: 114
    script: {fileID: -765806418, guid: f70555f144d8491a825f0804e09c671c, type: 3}
  m_SampleRate: 12
  m_WrapMode: 0
  m_Bounds:
    m_Center: {x: 0, y: 0, z: 0}
    m_Extent: {x: 0, y: 0, z: 0}
  m_ClipBindingConstant:
    genericBindings:
    - serializedVersion: 2
      path: 0
      attribute: 2015549526
      script: {fileID: -765806418, guid: f70555f144d8491a825f0804e09c671c, type: 3}
      typeID: 114
      customType: 0
      isPPtrCurve: 1
    pptrCurveMapping:
    - {fileID: 21300000, guid: 46bf7b19f42e64116a2e0e586809eda6, type: 3}
    - {fileID: 21300000, guid: 01b25b7005f6246e89dc9932323d6abd, type: 3}
    - {fileID: 21300000, guid: 37fa157397cb9415bb7107b0e0413808, type: 3}
    - {fileID: 21300000, guid: 75bf3b2d4177449e99912145438da99e, type: 3}
    - {fileID: 21300000, guid: c543ba0f65c284402839249758b1f29e, type: 3}
    - {fileID: 21300000, guid: 4cc44e6a9e1dc4210b3a19b5c2587986, type: 3}
    - {fileID: 21300000, guid: 418e3dd520c5147b79c43574dfb640cc, type: 3}
    - {fileID: 21300000, guid: 275f31629cd9444f9b5e5400461792cb, type: 3}
    - {fileID: 21300000, guid: 640c8a675cf3c4981a3299aa74a465d0, type: 3}
    - {fileID: 21300000, guid: 47f911f54855540f086811c77a774243, type: 3}
    - {fileID: 21300000, guid: 1d5b9fc2100194bb48669d8ab6323f28, type: 3}
    - {fileID: 21300000, guid: a5cd52512db2b4726aebdb45b16977fc, type: 3}
    - {fileID: 21300000, guid: c8330dca1cbc54ef0b32460db0b705d8, type: 3}
    - {fileID: 21300000, guid: 4c0318768cef64b22942eaa71b82e42e, type: 3}
    - {fileID: 21300000, guid: ff0ea1df17a764d799bd741a29c09748, type: 3}
    - {fileID: 21300000, guid: 2a3a6f19aa8ef4fbabfe1a64b71b1d57, type: 3}
    - {fileID: 21300000, guid: b3ce0e624168b4eff8f0fd8899669ffe, type: 3}
    - {fileID: 21300000, guid: 5167b242d7b784220972f76bcb1858a2, type: 3}
    - {fileID: 21300000, guid: c82d3f035cbec4ac3ab34a3ed5c0968a, type: 3}
    - {fileID: 21300000, guid: 8f0a7eb2ff4254b4692e77feeb9b084c, type: 3}
    - {fileID: 21300000, guid: f3e8801cd0fd747b291481743c2e060a, type: 3}
    - {fileID: 21300000, guid: 628e4af1bf53c40bbacb738d376aec5f, type: 3}
    - {fileID: 21300000, guid: 911ad38ed810f4fa8ad9e14c278e9fd9, type: 3}
    - {fileID: 21300000, guid: 3bc18d8745f5247ada6f2c34495fa3c1, type: 3}
    - {fileID: 21300000, guid: 9dd9dec2f28f540c49fa3a31fb4af394, type: 3}
    - {fileID: 21300000, guid: c5adb3414350940ee91fd4e1e00d9dd9, type: 3}
    - {fileID: 21300000, guid: fa8986ba2763d4808a375deac3a7cf64, type: 3}
    - {fileID: 21300000, guid: 800d869ca4c5c47158d6fd07b3e4a6ec, type: 3}
    - {fileID: 21300000, guid: 82b06237cb96047d394c88f1293f3397, type: 3}
    - {fileID: 21300000, guid: 725e85c68a59c4655917c8079f777890, type: 3}
    - {fileID: 21300000, guid: 0a606c2fb408d47d4bb85af059ff3324, type: 3}
    - {fileID: 21300000, guid: 5563ad9f2856440c0999c9f6ce8763e6, type: 3}
    - {fileID: 21300000, guid: 102367a80258d45339e7f6c0cf09d6ae, type: 3}
    - {fileID: 21300000, guid: bc3f2e77469d543688b90ebd26eec781, type: 3}
  m_AnimationClipSettings:
    serializedVersion: 2
    m_AdditiveReferencePoseClip: {fileID: 0}
    m_AdditiveReferencePoseTime: 0
    m_StartTime: 0
    m_StopTime: 2.8333333
    m_OrientationOffsetY: 0
    m_Level: 0
    m_CycleOffset: 0
    m_HasAdditiveReferencePose: 0
    m_LoopTime: 0
    m_LoopBlend: 0
    m_LoopBlendOrientation: 0
    m_LoopBlendPositionY: 0
    m_LoopBlendPositionXZ: 0
    m_KeepOriginalOrientation: 0
    m_KeepOriginalPositionY: 1
    m_KeepOriginalPositionXZ: 0
    m_HeightFromFeet: 0
    m_Mirror: 0
  m_EditorCurves: []
  m_EulerEditorCurves: []
  m_HasGenericRootTransform: 0
  m_HasMotionFloatCurves: 0
  m_Events:
  - time: 2.8333333
    functionName: FinishedBattleTransition
    data: 
    objectReferenceParameter: {fileID: 0}
    floatParameter: 0
    intParameter: 0
    messageOptions: 0
