%YAML 1.1
%TAG !u! tag:unity3d.com,2011:
--- !u!74 &7400000
AnimationClip:
  m_ObjectHideFlags: 0
  m_CorrespondingSourceObject: {fileID: 0}
  m_PrefabInstance: {fileID: 0}
  m_PrefabAsset: {fileID: 0}
  m_Name: insquare
  serializedVersion: 6
  m_Legacy: 0
  m_Compressed: 0
  m_UseHighQualityCurve: 1
  m_RotationCurves: []
  m_CompressedRotationCurves: []
  m_EulerCurves: []
  m_PositionCurves: []
  m_ScaleCurves: []
  m_FloatCurves: []
  m_PPtrCurves:
  - curve:
    - time: 0
      value: {fileID: 21300000, guid: d461dd4b081254f18840a1949854f55d, type: 3}
    - time: 0.083333336
      value: {fileID: 21300000, guid: a37838216d4594b638cb888a6211f28a, type: 3}
    - time: 0.16666667
      value: {fileID: 21300000, guid: 2b3e9a88684ea48399ab589e44fd2791, type: 3}
    - time: 0.25
      value: {fileID: 21300000, guid: cbc9c9e7a774a42b99ed4f3ef7fe0fc0, type: 3}
    - time: 0.33333334
      value: {fileID: 21300000, guid: 9f321165857e242d8b98e5ee4e24f031, type: 3}
    - time: 0.41666666
      value: {fileID: 21300000, guid: 6499f712357bb4b02846b036d3e8dec4, type: 3}
    - time: 0.5
      value: {fileID: 21300000, guid: 9399898f6d49b455a84d9cbe09aead08, type: 3}
    - time: 0.5833333
      value: {fileID: 21300000, guid: 3ad6870a40d2147afaab032066649202, type: 3}
    - time: 0.6666667
      value: {fileID: 21300000, guid: 018a49b6060c74128b28e9741499bf48, type: 3}
    attribute: m_Sprite
    path: 
    classID: 114
    script: {fileID: -765806418, guid: f70555f144d8491a825f0804e09c671c, type: 3}
  m_SampleRate: 12
  m_WrapMode: 0
  m_Bounds:
    m_Center: {x: 0, y: 0, z: 0}
    m_Extent: {x: 0, y: 0, z: 0}
  m_ClipBindingConstant:
    genericBindings:
    - serializedVersion: 2
      path: 0
      attribute: 2015549526
      script: {fileID: -765806418, guid: f70555f144d8491a825f0804e09c671c, type: 3}
      typeID: 114
      customType: 0
      isPPtrCurve: 1
    pptrCurveMapping:
    - {fileID: 21300000, guid: d461dd4b081254f18840a1949854f55d, type: 3}
    - {fileID: 21300000, guid: a37838216d4594b638cb888a6211f28a, type: 3}
    - {fileID: 21300000, guid: 2b3e9a88684ea48399ab589e44fd2791, type: 3}
    - {fileID: 21300000, guid: cbc9c9e7a774a42b99ed4f3ef7fe0fc0, type: 3}
    - {fileID: 21300000, guid: 9f321165857e242d8b98e5ee4e24f031, type: 3}
    - {fileID: 21300000, guid: 6499f712357bb4b02846b036d3e8dec4, type: 3}
    - {fileID: 21300000, guid: 9399898f6d49b455a84d9cbe09aead08, type: 3}
    - {fileID: 21300000, guid: 3ad6870a40d2147afaab032066649202, type: 3}
    - {fileID: 21300000, guid: 018a49b6060c74128b28e9741499bf48, type: 3}
  m_AnimationClipSettings:
    serializedVersion: 2
    m_AdditiveReferencePoseClip: {fileID: 0}
    m_AdditiveReferencePoseTime: 0
    m_StartTime: 0
    m_StopTime: 0.75
    m_OrientationOffsetY: 0
    m_Level: 0
    m_CycleOffset: 0
    m_HasAdditiveReferencePose: 0
    m_LoopTime: 0
    m_LoopBlend: 0
    m_LoopBlendOrientation: 0
    m_LoopBlendPositionY: 0
    m_LoopBlendPositionXZ: 0
    m_KeepOriginalOrientation: 0
    m_KeepOriginalPositionY: 1
    m_KeepOriginalPositionXZ: 0
    m_HeightFromFeet: 0
    m_Mirror: 0
  m_EditorCurves: []
  m_EulerEditorCurves: []
  m_HasGenericRootTransform: 0
  m_HasMotionFloatCurves: 0
  m_Events:
  - time: 0.75
    functionName: FinishedBattleTransition
    data: 
    objectReferenceParameter: {fileID: 0}
    floatParameter: 0
    intParameter: 0
    messageOptions: 0
