%YAML 1.1
%TAG !u! tag:unity3d.com,2011:
--- !u!74 &7400000
AnimationClip:
  m_ObjectHideFlags: 0
  m_CorrespondingSourceObject: {fileID: 0}
  m_PrefabInstance: {fileID: 0}
  m_PrefabAsset: {fileID: 0}
  m_Name: singlespiral
  serializedVersion: 6
  m_Legacy: 0
  m_Compressed: 0
  m_UseHighQualityCurve: 1
  m_RotationCurves: []
  m_CompressedRotationCurves: []
  m_EulerCurves: []
  m_PositionCurves: []
  m_ScaleCurves: []
  m_FloatCurves: []
  m_PPtrCurves:
  - curve:
    - time: 0
      value: {fileID: 21300000, guid: afbdb96816b9649a0bdcaeadad132c4f, type: 3}
    - time: 0.083333336
      value: {fileID: 21300000, guid: 2ec06df8d41f64e29bdc2c0363b2adbc, type: 3}
    - time: 0.16666667
      value: {fileID: 21300000, guid: 6cdd2fc19574e4471b8b31066514d4d1, type: 3}
    - time: 0.25
      value: {fileID: 21300000, guid: c92a51b344e32483f95d3b1d32e90a9f, type: 3}
    - time: 0.33333334
      value: {fileID: 21300000, guid: 2bccd9435a9004ca58c94f35f71d6868, type: 3}
    - time: 0.41666666
      value: {fileID: 21300000, guid: b69aea10857a2464bad08f8df8e6772e, type: 3}
    - time: 0.5
      value: {fileID: 21300000, guid: 0ce94564a176a42c0ae819f9cc91ad6a, type: 3}
    - time: 0.5833333
      value: {fileID: 21300000, guid: 73b6e071a1f65410aaa9dc3acdf5c950, type: 3}
    - time: 0.6666667
      value: {fileID: 21300000, guid: 38bea77ecd2d0448e8292754c140b050, type: 3}
    - time: 0.75
      value: {fileID: 21300000, guid: 6ae99d9613f4546e8aadf0c66e702fc5, type: 3}
    - time: 0.8333333
      value: {fileID: 21300000, guid: f813951596b674461935ce76ee5c4d77, type: 3}
    - time: 0.9166667
      value: {fileID: 21300000, guid: bce071bee33f248208b7db27df41f137, type: 3}
    - time: 1
      value: {fileID: 21300000, guid: f03b824dfdc1f497e9e6596bb07628b2, type: 3}
    - time: 1.0833334
      value: {fileID: 21300000, guid: d24edd6972d674d728921701ca5455f9, type: 3}
    - time: 1.1666666
      value: {fileID: 21300000, guid: 0323041d68ade4b2193c9c567c8320d2, type: 3}
    - time: 1.25
      value: {fileID: 21300000, guid: ee7359e3caef64a2281289d7c53ad7da, type: 3}
    - time: 1.3333334
      value: {fileID: 21300000, guid: 6c10172177eb04f2183d74d9842512df, type: 3}
    - time: 1.4166666
      value: {fileID: 21300000, guid: d988cff3273844fa1b0458169d08b120, type: 3}
    - time: 1.5
      value: {fileID: 21300000, guid: 904b6f92162d4452cac888376c28e268, type: 3}
    attribute: m_Sprite
    path: 
    classID: 114
    script: {fileID: -765806418, guid: f70555f144d8491a825f0804e09c671c, type: 3}
  m_SampleRate: 12
  m_WrapMode: 0
  m_Bounds:
    m_Center: {x: 0, y: 0, z: 0}
    m_Extent: {x: 0, y: 0, z: 0}
  m_ClipBindingConstant:
    genericBindings:
    - serializedVersion: 2
      path: 0
      attribute: 2015549526
      script: {fileID: -765806418, guid: f70555f144d8491a825f0804e09c671c, type: 3}
      typeID: 114
      customType: 0
      isPPtrCurve: 1
    pptrCurveMapping:
    - {fileID: 21300000, guid: afbdb96816b9649a0bdcaeadad132c4f, type: 3}
    - {fileID: 21300000, guid: 2ec06df8d41f64e29bdc2c0363b2adbc, type: 3}
    - {fileID: 21300000, guid: 6cdd2fc19574e4471b8b31066514d4d1, type: 3}
    - {fileID: 21300000, guid: c92a51b344e32483f95d3b1d32e90a9f, type: 3}
    - {fileID: 21300000, guid: 2bccd9435a9004ca58c94f35f71d6868, type: 3}
    - {fileID: 21300000, guid: b69aea10857a2464bad08f8df8e6772e, type: 3}
    - {fileID: 21300000, guid: 0ce94564a176a42c0ae819f9cc91ad6a, type: 3}
    - {fileID: 21300000, guid: 73b6e071a1f65410aaa9dc3acdf5c950, type: 3}
    - {fileID: 21300000, guid: 38bea77ecd2d0448e8292754c140b050, type: 3}
    - {fileID: 21300000, guid: 6ae99d9613f4546e8aadf0c66e702fc5, type: 3}
    - {fileID: 21300000, guid: f813951596b674461935ce76ee5c4d77, type: 3}
    - {fileID: 21300000, guid: bce071bee33f248208b7db27df41f137, type: 3}
    - {fileID: 21300000, guid: f03b824dfdc1f497e9e6596bb07628b2, type: 3}
    - {fileID: 21300000, guid: d24edd6972d674d728921701ca5455f9, type: 3}
    - {fileID: 21300000, guid: 0323041d68ade4b2193c9c567c8320d2, type: 3}
    - {fileID: 21300000, guid: ee7359e3caef64a2281289d7c53ad7da, type: 3}
    - {fileID: 21300000, guid: 6c10172177eb04f2183d74d9842512df, type: 3}
    - {fileID: 21300000, guid: d988cff3273844fa1b0458169d08b120, type: 3}
    - {fileID: 21300000, guid: 904b6f92162d4452cac888376c28e268, type: 3}
  m_AnimationClipSettings:
    serializedVersion: 2
    m_AdditiveReferencePoseClip: {fileID: 0}
    m_AdditiveReferencePoseTime: 0
    m_StartTime: 0
    m_StopTime: 1.5833334
    m_OrientationOffsetY: 0
    m_Level: 0
    m_CycleOffset: 0
    m_HasAdditiveReferencePose: 0
    m_LoopTime: 0
    m_LoopBlend: 0
    m_LoopBlendOrientation: 0
    m_LoopBlendPositionY: 0
    m_LoopBlendPositionXZ: 0
    m_KeepOriginalOrientation: 0
    m_KeepOriginalPositionY: 1
    m_KeepOriginalPositionXZ: 0
    m_HeightFromFeet: 0
    m_Mirror: 0
  m_EditorCurves: []
  m_EulerEditorCurves: []
  m_HasGenericRootTransform: 0
  m_HasMotionFloatCurves: 0
  m_Events:
  - time: 1.5833334
    functionName: FinishedBattleTransition
    data: 
    objectReferenceParameter: {fileID: 0}
    floatParameter: 0
    intParameter: 0
    messageOptions: 0
