{
  "indices" : [
    {
      "indices" : [
        {
          "indiceString" : "191, 846, 243, 244"
        },
        {
          "indiceString" : "2, 1, 1, 2"
        },
        {
          "indiceString" : "134, 135, 152, 137"
        },
        {
          "indiceString" : "135, 136, 243, 154"
        },
        {
          "indiceString" : "33, 33, 33, 7"
        },
        {
          "indiceString" : "28, 28, 28, 28"
        },
        {
          "indiceString" : "72, 72, 113, 90"
        },
        {
          "indiceString" : "24, 24, 116, 116"
        },
        {
          "indiceString" : "3, 3, 3, 5"
        },
        {
          "indiceString" : "135, 135, 169, 170"
        },
        {
          "indiceString" : "24, 24, 24, 24"
        },
        {
          "indiceString" : "25, 25, 25, 25"
        },
        {
          "indiceString" : "185, 139, 204, 205"
        },
        {
          "indiceString" : "139, 139, 205, 205"
        },
        {
          "indiceString" : "139, 186, 205, 206"
        },
        {
          "indiceString" : "30, 30, 30, 30"
        },
        {
          "indiceString" : "222, 223, 242, 243"
        },
        {
          "indiceString" : "254, 255, 243, 243"
        },
        {
          "indiceString" : "223, 224, 137, 244"
        },
        {
          "indiceString" : "7, 7, 7, 7"
        },
        {
          "indiceString" : "7, 33, 7, 7"
        },
        {
          "indiceString" : "33, 7, 7, 7"
        },
        {
          "indiceString" : "7, 7, 7, 33"
        },
        {
          "indiceString" : "7, 7, 33, 7"
        },
        {
          "indiceString" : "7, 33, 7, 33"
        },
        {
          "indiceString" : "33, 7, 33, 7"
        },
        {
          "indiceString" : "3, 3, 79, 122"
        },
        {
          "indiceString" : "8, 1, 8, 1"
        },
        {
          "indiceString" : "2, 1, 30, 30"
        },
        {
          "indiceString" : "10, 57, 34, 33"
        },
        {
          "indiceString" : "57, 9, 33, 32"
        },
        {
          "indiceString" : "57, 57, 33, 33"
        },
        {
          "indiceString" : "138, 139, 172, 205"
        },
        {
          "indiceString" : "139, 140, 205, 173"
        },
        {
          "indiceString" : "178, 159, 196, 159"
        },
        {
          "indiceString" : "144, 144, 161, 161"
        },
        {
          "indiceString" : "71, 72, 89, 90"
        },
        {
          "indiceString" : "72, 73, 90, 91"
        },
        {
          "indiceString" : "158, 179, 158, 197"
        },
        {
          "indiceString" : "158, 159, 158, 159"
        },
        {
          "indiceString" : "71, 72, 71, 72"
        },
        {
          "indiceString" : "72, 73, 72, 73"
        },
        {
          "indiceString" : "72, 72, 112, 72"
        },
        {
          "indiceString" : "72, 72, 72, 114"
        },
        {
          "indiceString" : "72, 72, 72, 72"
        },
        {
          "indiceString" : "33, 56, 33, 33"
        },
        {
          "indiceString" : "58, 33, 33, 33"
        },
        {
          "indiceString" : "24, 24, 74, 93"
        },
        {
          "indiceString" : "134, 135, 152, 170"
        },
        {
          "indiceString" : "3, 3, 3, 3"
        },
        {
          "indiceString" : "30, 31, 30, 24"
        },
        {
          "indiceString" : "30, 30, 24, 31"
        },
        {
          "indiceString" : "31, 24, 30, 30"
        },
        {
          "indiceString" : "24, 31, 30, 24"
        },
        {
          "indiceString" : "30, 30, 24, 30"
        },
        {
          "indiceString" : "227, 191, 246, 208"
        },
        {
          "indiceString" : "2, 1, 134, 135"
        },
        {
          "indiceString" : "2, 1, 135, 136"
        },
        {
          "indiceString" : "189, 190, 137, 243"
        },
        {
          "indiceString" : "50, 53, 72, 73"
        },
        {
          "indiceString" : "256, 257, 225, 137"
        },
        {
          "indiceString" : "259, 260, 243, 245"
        },
        {
          "indiceString" : "49, 50, 71, 72"
        },
        {
          "indiceString" : "50, 50, 72, 72"
        },
        {
          "indiceString" : "7, 24, 24, 24"
        },
        {
          "indiceString" : "24, 24, 7, 24"
        },
        {
          "indiceString" : "24, 30, 74, 30"
        },
        {
          "indiceString" : "33, 33, 33, 33"
        },
        {
          "indiceString" : "158, 179, 194, 161"
        },
        {
          "indiceString" : "178, 159, 161, 195"
        },
        {
          "indiceString" : "98, 3, 98, 3"
        },
        {
          "indiceString" : "3, 97, 3, 97"
        },
        {
          "indiceString" : "144, 177, 196, 159"
        },
        {
          "indiceString" : "176, 144, 158, 197"
        },
        {
          "indiceString" : "98, 3, 121, 99"
        },
        {
          "indiceString" : "3, 97, 75, 120"
        },
        {
          "indiceString" : "24, 24, 30, 24"
        },
        {
          "indiceString" : "24, 7, 24, 7"
        },
        {
          "indiceString" : "7, 24, 7, 24"
        },
        {
          "indiceString" : "24, 7, 7, 7"
        },
        {
          "indiceString" : "7, 24, 7, 7"
        },
        {
          "indiceString" : "7, 7, 24, 24"
        },
        {
          "indiceString" : "24, 24, 7, 7"
        },
        {
          "indiceString" : "24, 7, 24, 24"
        },
        {
          "indiceString" : "28, 28, 28, 28"
        },
        {
          "indiceString" : "27, 27, 27, 27"
        },
        {
          "indiceString" : "3, 3, 8, 5"
        },
        {
          "indiceString" : "72, 72, 90, 90"
        },
        {
          "indiceString" : "92, 24, 92, 24"
        },
        {
          "indiceString" : "24, 97, 24, 97"
        },
        {
          "indiceString" : "92, 24, 115, 116"
        },
        {
          "indiceString" : "24, 97, 24, 97"
        },
        {
          "indiceString" : "3, 3, 99, 79"
        },
        {
          "indiceString" : "141, 142, 158, 159"
        },
        {
          "indiceString" : "158, 159, 174, 175"
        },
        {
          "indiceString" : "1, 8, 1, 8"
        },
        {
          "indiceString" : "24, 30, 31, 30"
        },
        {
          "indiceString" : "3, 3, 7, 7"
        },
        {
          "indiceString" : "7, 7, 7, 24"
        },
        {
          "indiceString" : "7, 7, 24, 7"
        },
        {
          "indiceString" : "33, 32, 33, 32"
        },
        {
          "indiceString" : "34, 33, 34, 33"
        },
        {
          "indiceString" : "34, 32, 34, 32"
        },
        {
          "indiceString" : "7, 57, 7, 33"
        },
        {
          "indiceString" : "227, 191, 227, 191"
        },
        {
          "indiceString" : "191, 229, 191, 229"
        },
        {
          "indiceString" : "57, 7, 33, 7"
        },
        {
          "indiceString" : "33, 33, 7, 7"
        },
        {
          "indiceString" : "30, 30, 24, 24"
        },
        {
          "indiceString" : "30, 24, 30, 24"
        },
        {
          "indiceString" : "24, 30, 24, 30"
        },
        {
          "indiceString" : "24, 24, 30, 30"
        },
        {
          "indiceString" : "72, 73, 113, 91"
        },
        {
          "indiceString" : "266, 266, 272, 272"
        },
        {
          "indiceString" : "191, 229, 230, 247"
        },
        {
          "indiceString" : "191, 229, 248, 247"
        },
        {
          "indiceString" : "11, 11, 35, 35"
        },
        {
          "indiceString" : "265, 266, 271, 272"
        },
        {
          "indiceString" : "266, 267, 272, 273"
        },
        {
          "indiceString" : "3, 3, 8, 8"
        },
        {
          "indiceString" : "59, 59, 33, 33"
        },
        {
          "indiceString" : "81, 81, 81, 5"
        },
        {
          "indiceString" : "102, 102, 102, 102"
        },
        {
          "indiceString" : "125, 125, 125, 125"
        },
        {
          "indiceString" : "227, 191, 246, 137"
        },
        {
          "indiceString" : "191, 191, 208, 208"
        },
        {
          "indiceString" : "191, 229, 208, 247"
        },
        {
          "indiceString" : "191, 191, 191, 191"
        }
      ]
    },
    {
      "indices" : [
        {
          "indiceString" : "0, 0, 0, 0"
        },
        {
          "indiceString" : "410, 539, 410, 556"
        },
        {
          "indiceString" : "540, 410, 557, 410"
        },
        {
          "indiceString" : "381, 381, 400, 400"
        },
        {
          "indiceString" : "541, 541, 558, 558"
        },
        {
          "indiceString" : "381, 411, 400, 400"
        },
        {
          "indiceString" : "400, 484, 400, 400"
        },
        {
          "indiceString" : "381, 411, 400, 500"
        },
        {
          "indiceString" : "381, 411, 400, 481"
        },
        {
          "indiceString" : "381, 411, 400, 466"
        },
        {
          "indiceString" : "495, 495, 495, 495"
        },
        {
          "indiceString" : "400, 400, 425, 425"
        },
        {
          "indiceString" : "538, 400, 555, 400"
        },
        {
          "indiceString" : "400, 466, 400, 484"
        },
        {
          "indiceString" : "410, 400, 400, 400"
        },
        {
          "indiceString" : "400, 400, 400, 400"
        },
        {
          "indiceString" : "543, 544, 560, 556"
        },
        {
          "indiceString" : "545, 518, 557, 400"
        },
        {
          "indiceString" : "506, 400, 525, 400"
        }
      ]
    },
    {
      "indices" : [
        {
          "indiceString" : "495, 495, 495, 495"
        },
        {
          "indiceString" : "665, 684, 674, 684"
        },
        {
          "indiceString" : "662, 663, 676, 677"
        },
        {
          "indiceString" : "674, 674, 674, 674"
        },
        {
          "indiceString" : "691, 692, 674, 674"
        },
        {
          "indiceString" : "691, 693, 674, 674"
        },
        {
          "indiceString" : "690, 691, 674, 674"
        },
        {
          "indiceString" : "691, 691, 674, 674"
        },
        {
          "indiceString" : "701, 702, 713, 675"
        },
        {
          "indiceString" : "666, 666, 680, 680"
        },
        {
          "indiceString" : "674, 674, 674, 688"
        },
        {
          "indiceString" : "674, 674, 688, 674"
        },
        {
          "indiceString" : "659, 659, 674, 674"
        },
        {
          "indiceString" : "661, 659, 674, 674"
        },
        {
          "indiceString" : "746, 746, 757, 757"
        },
        {
          "indiceString" : "674, 674, 674, 674"
        },
        {
          "indiceString" : "663, 664, 678, 675"
        },
        {
          "indiceString" : "866, 674, 675, 674"
        },
        {
          "indiceString" : "666, 666, 680, 680"
        },
        {
          "indiceString" : "703, 703, 714, 714"
        },
        {
          "indiceString" : "674, 674, 704, 705"
        },
        {
          "indiceString" : "709, 710, 674, 674"
        },
        {
          "indiceString" : "675, 674, 704, 705"
        },
        {
          "indiceString" : "717, 718, 675, 674"
        },
        {
          "indiceString" : "659, 679, 675, 694"
        },
        {
          "indiceString" : "675, 674, 675, 674"
        },
        {
          "indiceString" : "675, 674, 674, 688"
        },
        {
          "indiceString" : "674, 719, 674, 674"
        },
        {
          "indiceString" : "691, 691, 674, 706"
        },
        {
          "indiceString" : "704, 706, 709, 710"
        },
        {
          "indiceString" : "674, 674, 729, 730"
        },
        {
          "indiceString" : "674, 674, 730, 730"
        },
        {
          "indiceString" : "684, 662, 684, 676"
        },
        {
          "indiceString" : "693, 690, 674, 674"
        },
        {
          "indiceString" : "689, 674, 674, 674"
        },
        {
          "indiceString" : "689, 691, 674, 706"
        },
        {
          "indiceString" : "495, 495, 730, 730"
        }
      ]
    },
    {
      "indices" : [
        {
          "indiceString" : "4, 4, 4, 4"
        },
        {
          "indiceString" : "40, 65, 41, 65"
        },
        {
          "indiceString" : "84, 85, 105, 106"
        },
        {
          "indiceString" : "495, 495, 495, 495"
        },
        {
          "indiceString" : "15, 15, 16, 16"
        },
        {
          "indiceString" : "16, 16, 15, 15"
        },
        {
          "indiceString" : "16, 15, 16, 15"
        },
        {
          "indiceString" : "15, 16, 15, 16"
        },
        {
          "indiceString" : "16, 16, 16, 15"
        },
        {
          "indiceString" : "16, 16, 15, 16"
        },
        {
          "indiceString" : "16, 15, 16, 16"
        },
        {
          "indiceString" : "15, 16, 16, 16"
        },
        {
          "indiceString" : "15, 15, 16, 15"
        },
        {
          "indiceString" : "15, 15, 15, 16"
        },
        {
          "indiceString" : "16, 15, 15, 15"
        },
        {
          "indiceString" : "15, 15, 15, 16"
        },
        {
          "indiceString" : "15, 15, 15, 104"
        },
        {
          "indiceString" : "15, 15, 104, 15"
        },
        {
          "indiceString" : "15, 104, 15, 15"
        },
        {
          "indiceString" : "104, 15, 15, 15"
        },
        {
          "indiceString" : "4, 4, 84, 85"
        },
        {
          "indiceString" : "4, 16, 18, 16"
        },
        {
          "indiceString" : "18, 15, 15, 15"
        },
        {
          "indiceString" : "4, 4, 103, 103"
        },
        {
          "indiceString" : "105, 106, 4, 4"
        },
        {
          "indiceString" : "126, 127, 146, 149"
        },
        {
          "indiceString" : "127, 128, 151, 148"
        },
        {
          "indiceString" : "4, 4, 4, 4"
        },
        {
          "indiceString" : "127, 128, 150, 148"
        },
        {
          "indiceString" : "16, 16, 16, 16"
        },
        {
          "indiceString" : "4, 4, 16, 16"
        },
        {
          "indiceString" : "16, 16, 4, 4"
        },
        {
          "indiceString" : "17, 29, 42, 43"
        },
        {
          "indiceString" : "18, 4, 4, 4"
        },
        {
          "indiceString" : "15, 4, 15, 15"
        },
        {
          "indiceString" : "4, 15, 15, 15"
        },
        {
          "indiceString" : "15, 15, 15, 4"
        },
        {
          "indiceString" : "15, 15, 4, 15"
        },
        {
          "indiceString" : "4, 101, 103, 124"
        },
        {
          "indiceString" : "101, 4, 124, 103"
        },
        {
          "indiceString" : "29, 29, 29, 29"
        },
        {
          "indiceString" : "4, 4, 4, 66"
        },
        {
          "indiceString" : "101, 4, 124, 4"
        },
        {
          "indiceString" : "4, 101, 4, 124"
        },
        {
          "indiceString" : "86, 4, 4, 4"
        },
        {
          "indiceString" : "37, 37, 37, 37"
        },
        {
          "indiceString" : "67, 4, 4, 86"
        },
        {
          "indiceString" : "40, 65, 41, 65"
        },
        {
          "indiceString" : "4, 82, 4, 4"
        },
        {
          "indiceString" : "37, 37, 82, 83"
        },
        {
          "indiceString" : "83, 4, 4, 4"
        },
        {
          "indiceString" : "4, 4, 4, 18"
        },
        {
          "indiceString" : "4, 4, 4, 16"
        },
        {
          "indiceString" : "4, 4, 16, 16"
        },
        {
          "indiceString" : "4, 4, 16, 4"
        },
        {
          "indiceString" : "16, 4, 16, 4"
        },
        {
          "indiceString" : "4, 16, 4, 4"
        },
        {
          "indiceString" : "16, 16, 4, 4"
        },
        {
          "indiceString" : "16, 4, 4, 4"
        },
        {
          "indiceString" : "4, 16, 4, 16"
        },
        {
          "indiceString" : "68, 69, 71, 88"
        },
        {
          "indiceString" : "69, 69, 88, 88"
        },
        {
          "indiceString" : "69, 70, 88, 73"
        },
        {
          "indiceString" : "88, 88, 131, 88"
        },
        {
          "indiceString" : "71, 88, 71, 88"
        },
        {
          "indiceString" : "88, 88, 88, 88"
        },
        {
          "indiceString" : "88, 73, 88, 73"
        },
        {
          "indiceString" : "88, 88, 88, 133"
        },
        {
          "indiceString" : "71, 88, 109, 110"
        },
        {
          "indiceString" : "88, 88, 110, 110 "
        },
        {
          "indiceString" : "88, 73, 110, 111"
        },
        {
          "indiceString" : "88, 88, 132, 110"
        },
        {
          "indiceString" : "16, 16, 16, 4"
        },
        {
          "indiceString" : "16, 16, 4, 16"
        },
        {
          "indiceString" : "69, 88, 88, 88"
        },
        {
          "indiceString" : "88, 69, 88, 88"
        },
        {
          "indiceString" : "16, 4, 16, 16"
        },
        {
          "indiceString" : "4, 16, 16, 16"
        },
        {
          "indiceString" : "69, 70, 18, 73"
        },
        {
          "indiceString" : "62, 37, 37, 37"
        },
        {
          "indiceString" : "4, 13, 4, 38"
        },
        {
          "indiceString" : "61, 61, 37, 37"
        },
        {
          "indiceString" : "61, 12, 37, 36"
        },
        {
          "indiceString" : "88, 88, 110, 132"
        },
        {
          "indiceString" : "4, 38, 4, 38"
        },
        {
          "indiceString" : "82, 37, 38, 37"
        },
        {
          "indiceString" : "22, 4, 47, 4"
        },
        {
          "indiceString" : "4, 23, 4, 48"
        },
        {
          "indiceString" : "20, 21, 4, 4"
        },
        {
          "indiceString" : "4, 4, 45, 46"
        },
        {
          "indiceString" : "38, 37, 38, 37"
        },
        {
          "indiceString" : "37, 36, 37, 36"
        },
        {
          "indiceString" : "13, 61, 38, 37"
        },
        {
          "indiceString" : "37, 83, 37, 36"
        },
        {
          "indiceString" : "37, 60, 37, 37"
        },
        {
          "indiceString" : "38, 83, 38, 36"
        },
        {
          "indiceString" : "62, 36, 37, 36"
        },
        {
          "indiceString" : "18, 88, 88, 114"
        },
        {
          "indiceString" : "107, 108, 129, 130"
        },
        {
          "indiceString" : "80, 80, 80, 80"
        },
        {
          "indiceString" : "19, 4, 4, 4"
        },
        {
          "indiceString" : "4, 4, 19, 4"
        },
        {
          "indiceString" : "44, 4, 4, 4"
        },
        {
          "indiceString" : "4, 4, 44, 4"
        },
        {
          "indiceString" : "36, 4, 36, 4"
        },
        {
          "indiceString" : "83, 4, 36, 4"
        },
        {
          "indiceString" : "4, 82, 4, 38"
        },
        {
          "indiceString" : "80, 37, 80, 37"
        },
        {
          "indiceString" : "37, 37, 80, 80"
        },
        {
          "indiceString" : "80, 80, 37, 37"
        },
        {
          "indiceString" : "61, 62, 37, 37"
        },
        {
          "indiceString" : "60, 61, 37, 37"
        },
        {
          "indiceString" : "37, 80, 37, 80"
        },
        {
          "indiceString" : "61, 80, 37, 80"
        },
        {
          "indiceString" : "38, 37, 80, 80"
        },
        {
          "indiceString" : "38, 36, 38, 36"
        },
        {
          "indiceString" : "107, 69, 71, 88"
        },
        {
          "indiceString" : "108, 37, 869, 37"
        },
        {
          "indiceString" : "37, 107, 37, 867"
        },
        {
          "indiceString" : "69, 108, 88, 869"
        },
        {
          "indiceString" : "867, 88, 129, 868"
        },
        {
          "indiceString" : "869, 37, 130, 37"
        },
        {
          "indiceString" : "37, 867, 37, 129"
        },
        {
          "indiceString" : "88, 869, 868, 130"
        },
        {
          "indiceString" : "4, 4, 104, 104"
        },
        {
          "indiceString" : "104, 104, 4, 4"
        },
        {
          "indiceString" : "4, 104, 4, 104"
        },
        {
          "indiceString" : "104, 4, 104, 4"
        },
        {
          "indiceString" : "4, 4, 4, 4"
        }
      ]
    },
    {
      "indices" : [
        {
          "indiceString" : "0, 0, 0, 0"
        },
        {
          "indiceString" : "410, 539, 410, 556"
        },
        {
          "indiceString" : "540, 410, 557, 410"
        },
        {
          "indiceString" : "381, 381, 400, 400"
        },
        {
          "indiceString" : "541, 541, 558, 558"
        },
        {
          "indiceString" : "381, 411, 400, 400"
        },
        {
          "indiceString" : "400, 484, 400, 400"
        },
        {
          "indiceString" : "381, 411, 400, 500"
        },
        {
          "indiceString" : "381, 411, 400, 481"
        },
        {
          "indiceString" : "381, 411, 400, 466"
        },
        {
          "indiceString" : "495, 495, 495, 495"
        },
        {
          "indiceString" : "400, 400, 425, 425"
        },
        {
          "indiceString" : "538, 400, 555, 400"
        },
        {
          "indiceString" : "400, 466, 400, 484"
        },
        {
          "indiceString" : "410, 400, 400, 400"
        },
        {
          "indiceString" : "400, 400, 400, 400"
        },
        {
          "indiceString" : "543, 544, 560, 556"
        },
        {
          "indiceString" : "545, 518, 557, 400"
        },
        {
          "indiceString" : "506, 400, 525, 400"
        }
      ]
    },
    {
      "indices" : [
        {
          "indiceString" : "1, 1, 1, 1"
        },
        {
          "indiceString" : "574, 574, 518, 518"
        },
        {
          "indiceString" : "37, 37, 37, 37"
        },
        {
          "indiceString" : "495, 495, 495, 495"
        },
        {
          "indiceString" : "518, 518, 461, 461"
        },
        {
          "indiceString" : "518, 518, 518, 518"
        },
        {
          "indiceString" : "518, 518, 587, 586"
        },
        {
          "indiceString" : "518, 518, 586, 587"
        },
        {
          "indiceString" : "586, 586, 586, 518"
        },
        {
          "indiceString" : "586, 586, 518, 586"
        },
        {
          "indiceString" : "586, 586, 518, 518"
        },
        {
          "indiceString" : "518, 518, 586, 586"
        },
        {
          "indiceString" : "586, 518, 586, 586"
        },
        {
          "indiceString" : "518, 586, 586, 586"
        },
        {
          "indiceString" : "586, 518, 586, 518"
        },
        {
          "indiceString" : "518, 586, 518, 586"
        },
        {
          "indiceString" : "605, 518, 518, 518"
        },
        {
          "indiceString" : "518, 605, 518, 518"
        },
        {
          "indiceString" : "518, 518, 586, 518"
        },
        {
          "indiceString" : "518, 518, 518, 586"
        },
        {
          "indiceString" : "574, 574, 603, 603"
        },
        {
          "indiceString" : "603, 37, 603, 37"
        },
        {
          "indiceString" : "37, 603, 37, 603"
        },
        {
          "indiceString" : "37, 37, 37, 37"
        },
        {
          "indiceString" : "603, 603, 603, 603"
        },
        {
          "indiceString" : "587, 518, 605, 518"
        },
        {
          "indiceString" : "37, 587, 37, 605"
        },
        {
          "indiceString" : "518, 518, 63, 63"
        },
        {
          "indiceString" : "518, 63, 518, 37"
        },
        {
          "indiceString" : "63, 518, 37, 518"
        },
        {
          "indiceString" : "63, 63, 604, 604"
        },
        {
          "indiceString" : "63, 518, 604, 518"
        },
        {
          "indiceString" : "63, 63, 37, 37"
        },
        {
          "indiceString" : "574, 574, 37, 37"
        },
        {
          "indiceString" : "604, 604, 518, 518"
        },
        {
          "indiceString" : "37, 37, 604, 604"
        },
        {
          "indiceString" : "576, 576, 518, 518"
        },
        {
          "indiceString" : ""
        },
        {
          "indiceString" : ""
        },
        {
          "indiceString" : ""
        },
        {
          "indiceString" : ""
        },
        {
          "indiceString" : ""
        },
        {
          "indiceString" : ""
        },
        {
          "indiceString" : ""
        },
        {
          "indiceString" : ""
        },
        {
          "indiceString" : ""
        },
        {
          "indiceString" : ""
        },
        {
          "indiceString" : ""
        },
        {
          "indiceString" : ""
        },
        {
          "indiceString" : ""
        },
        {
          "indiceString" : ""
        },
        {
          "indiceString" : ""
        },
        {
          "indiceString" : ""
        },
        {
          "indiceString" : ""
        },
        {
          "indiceString" : ""
        },
        {
          "indiceString" : ""
        },
        {
          "indiceString" : ""
        },
        {
          "indiceString" : ""
        },
        {
          "indiceString" : ""
        },
        {
          "indiceString" : ""
        },
        {
          "indiceString" : ""
        },
        {
          "indiceString" : ""
        },
        {
          "indiceString" : ""
        },
        {
          "indiceString" : ""
        },
        {
          "indiceString" : ""
        },
        {
          "indiceString" : ""
        },
        {
          "indiceString" : ""
        },
        {
          "indiceString" : ""
        },
        {
          "indiceString" : ""
        },
        {
          "indiceString" : ""
        },
        {
          "indiceString" : ""
        },
        {
          "indiceString" : ""
        },
        {
          "indiceString" : ""
        },
        {
          "indiceString" : ""
        },
        {
          "indiceString" : ""
        },
        {
          "indiceString" : ""
        },
        {
          "indiceString" : ""
        },
        {
          "indiceString" : ""
        },
        {
          "indiceString" : ""
        },
        {
          "indiceString" : ""
        },
        {
          "indiceString" : ""
        },
        {
          "indiceString" : ""
        },
        {
          "indiceString" : ""
        },
        {
          "indiceString" : ""
        },
        {
          "indiceString" : ""
        },
        {
          "indiceString" : ""
        },
        {
          "indiceString" : ""
        },
        {
          "indiceString" : ""
        },
        {
          "indiceString" : ""
        },
        {
          "indiceString" : ""
        },
        {
          "indiceString" : ""
        },
        {
          "indiceString" : ""
        },
        {
          "indiceString" : ""
        },
        {
          "indiceString" : ""
        },
        {
          "indiceString" : ""
        },
        {
          "indiceString" : ""
        },
        {
          "indiceString" : ""
        },
        {
          "indiceString" : ""
        },
        {
          "indiceString" : ""
        },
        {
          "indiceString" : ""
        },
        {
          "indiceString" : ""
        },
        {
          "indiceString" : ""
        },
        {
          "indiceString" : ""
        },
        {
          "indiceString" : ""
        },
        {
          "indiceString" : ""
        },
        {
          "indiceString" : ""
        },
        {
          "indiceString" : ""
        },
        {
          "indiceString" : ""
        },
        {
          "indiceString" : ""
        },
        {
          "indiceString" : ""
        },
        {
          "indiceString" : ""
        },
        {
          "indiceString" : ""
        },
        {
          "indiceString" : ""
        },
        {
          "indiceString" : ""
        },
        {
          "indiceString" : ""
        },
        {
          "indiceString" : ""
        },
        {
          "indiceString" : ""
        }
      ]
    },
    {
      "indices" : [
        {
          "indiceString" : "495, 495, 495, 495"
        },
        {
          "indiceString" : "665, 684, 674, 684"
        },
        {
          "indiceString" : "662, 663, 676, 677"
        },
        {
          "indiceString" : "674, 674, 674, 674"
        },
        {
          "indiceString" : "691, 692, 674, 674"
        },
        {
          "indiceString" : "691, 693, 674, 674"
        },
        {
          "indiceString" : "690, 691, 674, 674"
        },
        {
          "indiceString" : "691, 691, 674, 674"
        },
        {
          "indiceString" : "701, 702, 713, 675"
        },
        {
          "indiceString" : "666, 666, 680, 680"
        },
        {
          "indiceString" : "674, 674, 674, 688"
        },
        {
          "indiceString" : "674, 674, 688, 674"
        },
        {
          "indiceString" : "659, 659, 674, 674"
        },
        {
          "indiceString" : "661, 659, 674, 674"
        },
        {
          "indiceString" : "746, 746, 757, 757"
        },
        {
          "indiceString" : "674, 674, 674, 674"
        },
        {
          "indiceString" : "663, 664, 678, 675"
        },
        {
          "indiceString" : "866, 674, 675, 674"
        },
        {
          "indiceString" : "666, 666, 680, 680"
        },
        {
          "indiceString" : "703, 703, 714, 714"
        },
        {
          "indiceString" : "674, 674, 704, 705"
        },
        {
          "indiceString" : "709, 710, 674, 674"
        },
        {
          "indiceString" : "675, 674, 704, 705"
        },
        {
          "indiceString" : "717, 718, 675, 674"
        },
        {
          "indiceString" : "659, 679, 675, 694"
        },
        {
          "indiceString" : "675, 674, 675, 674"
        },
        {
          "indiceString" : "675, 674, 674, 688"
        },
        {
          "indiceString" : "674, 719, 674, 674"
        },
        {
          "indiceString" : "691, 691, 674, 706"
        },
        {
          "indiceString" : "704, 706, 709, 710"
        },
        {
          "indiceString" : "674, 674, 729, 730"
        },
        {
          "indiceString" : "674, 674, 730, 730"
        },
        {
          "indiceString" : "684, 662, 684, 676"
        },
        {
          "indiceString" : "693, 690, 674, 674"
        },
        {
          "indiceString" : "689, 674, 674, 674"
        },
        {
          "indiceString" : "689, 691, 674, 706"
        },
        {
          "indiceString" : "495, 495, 730, 730"
        }
      ]
    },
    {
      "indices" : [
        {
          "indiceString" : ""
        },
        {
          "indiceString" : ""
        },
        {
          "indiceString" : ""
        },
        {
          "indiceString" : ""
        },
        {
          "indiceString" : ""
        },
        {
          "indiceString" : ""
        },
        {
          "indiceString" : ""
        },
        {
          "indiceString" : ""
        },
        {
          "indiceString" : ""
        },
        {
          "indiceString" : ""
        },
        {
          "indiceString" : ""
        },
        {
          "indiceString" : ""
        },
        {
          "indiceString" : ""
        },
        {
          "indiceString" : ""
        },
        {
          "indiceString" : ""
        },
        {
          "indiceString" : ""
        },
        {
          "indiceString" : ""
        },
        {
          "indiceString" : ""
        },
        {
          "indiceString" : ""
        },
        {
          "indiceString" : ""
        },
        {
          "indiceString" : ""
        },
        {
          "indiceString" : ""
        },
        {
          "indiceString" : ""
        },
        {
          "indiceString" : ""
        },
        {
          "indiceString" : ""
        },
        {
          "indiceString" : ""
        },
        {
          "indiceString" : ""
        },
        {
          "indiceString" : ""
        },
        {
          "indiceString" : ""
        },
        {
          "indiceString" : ""
        },
        {
          "indiceString" : ""
        },
        {
          "indiceString" : ""
        },
        {
          "indiceString" : ""
        },
        {
          "indiceString" : ""
        },
        {
          "indiceString" : ""
        },
        {
          "indiceString" : ""
        },
        {
          "indiceString" : ""
        },
        {
          "indiceString" : ""
        },
        {
          "indiceString" : ""
        },
        {
          "indiceString" : ""
        },
        {
          "indiceString" : ""
        },
        {
          "indiceString" : ""
        },
        {
          "indiceString" : ""
        },
        {
          "indiceString" : ""
        },
        {
          "indiceString" : ""
        },
        {
          "indiceString" : ""
        },
        {
          "indiceString" : ""
        },
        {
          "indiceString" : ""
        },
        {
          "indiceString" : ""
        },
        {
          "indiceString" : ""
        },
        {
          "indiceString" : ""
        },
        {
          "indiceString" : ""
        },
        {
          "indiceString" : ""
        },
        {
          "indiceString" : ""
        },
        {
          "indiceString" : ""
        },
        {
          "indiceString" : ""
        },
        {
          "indiceString" : ""
        },
        {
          "indiceString" : ""
        },
        {
          "indiceString" : ""
        },
        {
          "indiceString" : ""
        },
        {
          "indiceString" : ""
        },
        {
          "indiceString" : ""
        },
        {
          "indiceString" : ""
        },
        {
          "indiceString" : ""
        },
        {
          "indiceString" : ""
        },
        {
          "indiceString" : ""
        },
        {
          "indiceString" : ""
        },
        {
          "indiceString" : ""
        },
        {
          "indiceString" : ""
        },
        {
          "indiceString" : ""
        },
        {
          "indiceString" : ""
        },
        {
          "indiceString" : ""
        },
        {
          "indiceString" : ""
        },
        {
          "indiceString" : ""
        },
        {
          "indiceString" : ""
        },
        {
          "indiceString" : ""
        },
        {
          "indiceString" : ""
        },
        {
          "indiceString" : ""
        },
        {
          "indiceString" : ""
        },
        {
          "indiceString" : ""
        },
        {
          "indiceString" : ""
        },
        {
          "indiceString" : ""
        },
        {
          "indiceString" : ""
        },
        {
          "indiceString" : ""
        },
        {
          "indiceString" : ""
        },
        {
          "indiceString" : ""
        },
        {
          "indiceString" : ""
        },
        {
          "indiceString" : ""
        },
        {
          "indiceString" : ""
        },
        {
          "indiceString" : ""
        },
        {
          "indiceString" : ""
        },
        {
          "indiceString" : ""
        },
        {
          "indiceString" : ""
        },
        {
          "indiceString" : ""
        },
        {
          "indiceString" : ""
        },
        {
          "indiceString" : ""
        },
        {
          "indiceString" : ""
        },
        {
          "indiceString" : ""
        },
        {
          "indiceString" : ""
        },
        {
          "indiceString" : ""
        },
        {
          "indiceString" : ""
        },
        {
          "indiceString" : ""
        },
        {
          "indiceString" : ""
        },
        {
          "indiceString" : ""
        },
        {
          "indiceString" : ""
        },
        {
          "indiceString" : ""
        },
        {
          "indiceString" : ""
        },
        {
          "indiceString" : ""
        },
        {
          "indiceString" : ""
        },
        {
          "indiceString" : ""
        },
        {
          "indiceString" : ""
        },
        {
          "indiceString" : ""
        },
        {
          "indiceString" : ""
        },
        {
          "indiceString" : ""
        },
        {
          "indiceString" : ""
        },
        {
          "indiceString" : ""
        }
      ]
    },
    {
      "indices" : [
        {
          "indiceString" : ""
        },
        {
          "indiceString" : ""
        },
        {
          "indiceString" : ""
        },
        {
          "indiceString" : ""
        },
        {
          "indiceString" : ""
        },
        {
          "indiceString" : ""
        },
        {
          "indiceString" : ""
        },
        {
          "indiceString" : ""
        },
        {
          "indiceString" : ""
        },
        {
          "indiceString" : ""
        },
        {
          "indiceString" : ""
        },
        {
          "indiceString" : ""
        },
        {
          "indiceString" : ""
        },
        {
          "indiceString" : ""
        },
        {
          "indiceString" : ""
        },
        {
          "indiceString" : ""
        },
        {
          "indiceString" : ""
        },
        {
          "indiceString" : ""
        },
        {
          "indiceString" : ""
        },
        {
          "indiceString" : ""
        },
        {
          "indiceString" : ""
        },
        {
          "indiceString" : ""
        },
        {
          "indiceString" : ""
        },
        {
          "indiceString" : ""
        },
        {
          "indiceString" : ""
        },
        {
          "indiceString" : ""
        },
        {
          "indiceString" : ""
        },
        {
          "indiceString" : ""
        },
        {
          "indiceString" : ""
        },
        {
          "indiceString" : ""
        },
        {
          "indiceString" : ""
        },
        {
          "indiceString" : ""
        },
        {
          "indiceString" : ""
        },
        {
          "indiceString" : ""
        },
        {
          "indiceString" : ""
        },
        {
          "indiceString" : ""
        },
        {
          "indiceString" : ""
        }
      ]
    },
    {
      "indices" : [
        {
          "indiceString" : ""
        }
      ]
    },
    {
      "indices" : [
        {
          "indiceString" : ""
        }
      ]
    },
    {
      "indices" : [
        {
          "indiceString" : ""
        }
      ]
    },
    {
      "indices" : [
        {
          "indiceString" : ""
        }
      ]
    },
    {
      "indices" : [
        {
          "indiceString" : ""
        }
      ]
    },
    {
      "indices" : [
        {
          "indiceString" : "335, 335, 335, 335"
        },
        {
          "indiceString" : "353, 353, 37, 37"
        },
        {
          "indiceString" : "335, 335, 336, 337"
        },
        {
          "indiceString" : "354, 355, 335, 335"
        },
        {
          "indiceString" : "353, 353, 338, 339"
        },
        {
          "indiceString" : "37, 37, 340, 341"
        },
        {
          "indiceString" : "325, 37, 342, 343"
        },
        {
          "indiceString" : "353, 353, 344, 345"
        },
        {
          "indiceString" : "356, 357, 372, 373"
        },
        {
          "indiceString" : "358, 359, 374, 375"
        },
        {
          "indiceString" : "360, 360, 375, 375"
        },
        {
          "indiceString" : "361, 362, 376, 377"
        },
        {
          "indiceString" : "335, 335, 335, 335"
        },
        {
          "indiceString" : "37, 37, 37, 37"
        },
        {
          "indiceString" : "371, 371, 371, 371"
        },
        {
          "indiceString" : "495, 495, 495, 495"
        },
        {
          "indiceString" : "370, 37, 370, 370"
        },
        {
          "indiceString" : "370, 37, 370, 37"
        },
        {
          "indiceString" : "37, 37, 370, 370"
        },
        {
          "indiceString" : "380, 353, 370, 37"
        },
        {
          "indiceString" : "335, 335, 335, 6"
        },
        {
          "indiceString" : "325, 370, 325, 37"
        },
        {
          "indiceString" : "370, 370, 37, 37"
        }
      ]
    },
    {
      "indices" : [
        {
          "indiceString" : ""
        }
      ]
    },
    {
      "indices" : [
        {
          "indiceString" : ""
        }
      ]
    },
    {
      "indices" : [
        {
          "indiceString" : ""
        }
      ]
    },
    {
      "indices" : [
        {
          "indiceString" : ""
        }
      ]
    },
    {
      "indices" : [
        {
          "indiceString" : ""
        }
      ]
    },
    {
      "indices" : [
        {
          "indiceString" : ""
        }
      ]
    },
    {
      "indices" : [
        {
          "indiceString" : ""
        }
      ]
    },
    {
      "indices" : [
        {
          "indiceString" : ""
        },
        {
          "indiceString" : ""
        },
        {
          "indiceString" : ""
        },
        {
          "indiceString" : ""
        },
        {
          "indiceString" : ""
        },
        {
          "indiceString" : ""
        },
        {
          "indiceString" : ""
        },
        {
          "indiceString" : ""
        },
        {
          "indiceString" : ""
        },
        {
          "indiceString" : ""
        },
        {
          "indiceString" : ""
        },
        {
          "indiceString" : ""
        },
        {
          "indiceString" : ""
        },
        {
          "indiceString" : ""
        },
        {
          "indiceString" : ""
        },
        {
          "indiceString" : ""
        },
        {
          "indiceString" : ""
        },
        {
          "indiceString" : ""
        },
        {
          "indiceString" : ""
        },
        {
          "indiceString" : ""
        },
        {
          "indiceString" : ""
        },
        {
          "indiceString" : ""
        },
        {
          "indiceString" : ""
        },
        {
          "indiceString" : ""
        },
        {
          "indiceString" : ""
        },
        {
          "indiceString" : ""
        },
        {
          "indiceString" : ""
        },
        {
          "indiceString" : ""
        },
        {
          "indiceString" : ""
        },
        {
          "indiceString" : ""
        },
        {
          "indiceString" : ""
        },
        {
          "indiceString" : ""
        },
        {
          "indiceString" : ""
        },
        {
          "indiceString" : ""
        },
        {
          "indiceString" : ""
        },
        {
          "indiceString" : ""
        },
        {
          "indiceString" : ""
        },
        {
          "indiceString" : ""
        },
        {
          "indiceString" : ""
        },
        {
          "indiceString" : ""
        },
        {
          "indiceString" : ""
        },
        {
          "indiceString" : ""
        },
        {
          "indiceString" : ""
        },
        {
          "indiceString" : ""
        },
        {
          "indiceString" : ""
        },
        {
          "indiceString" : ""
        },
        {
          "indiceString" : ""
        },
        {
          "indiceString" : ""
        },
        {
          "indiceString" : ""
        },
        {
          "indiceString" : ""
        },
        {
          "indiceString" : ""
        },
        {
          "indiceString" : ""
        },
        {
          "indiceString" : ""
        },
        {
          "indiceString" : ""
        },
        {
          "indiceString" : ""
        },
        {
          "indiceString" : ""
        },
        {
          "indiceString" : ""
        },
        {
          "indiceString" : ""
        },
        {
          "indiceString" : ""
        },
        {
          "indiceString" : ""
        },
        {
          "indiceString" : ""
        },
        {
          "indiceString" : ""
        },
        {
          "indiceString" : ""
        },
        {
          "indiceString" : ""
        },
        {
          "indiceString" : ""
        },
        {
          "indiceString" : ""
        },
        {
          "indiceString" : ""
        },
        {
          "indiceString" : ""
        },
        {
          "indiceString" : ""
        },
        {
          "indiceString" : ""
        },
        {
          "indiceString" : ""
        },
        {
          "indiceString" : ""
        },
        {
          "indiceString" : ""
        },
        {
          "indiceString" : ""
        },
        {
          "indiceString" : ""
        },
        {
          "indiceString" : ""
        },
        {
          "indiceString" : ""
        },
        {
          "indiceString" : ""
        },
        {
          "indiceString" : ""
        },
        {
          "indiceString" : ""
        },
        {
          "indiceString" : ""
        },
        {
          "indiceString" : ""
        },
        {
          "indiceString" : ""
        },
        {
          "indiceString" : ""
        },
        {
          "indiceString" : ""
        },
        {
          "indiceString" : ""
        },
        {
          "indiceString" : ""
        },
        {
          "indiceString" : ""
        },
        {
          "indiceString" : ""
        },
        {
          "indiceString" : ""
        },
        {
          "indiceString" : ""
        },
        {
          "indiceString" : ""
        },
        {
          "indiceString" : ""
        },
        {
          "indiceString" : ""
        },
        {
          "indiceString" : ""
        },
        {
          "indiceString" : ""
        },
        {
          "indiceString" : ""
        },
        {
          "indiceString" : ""
        },
        {
          "indiceString" : ""
        },
        {
          "indiceString" : ""
        },
        {
          "indiceString" : ""
        },
        {
          "indiceString" : ""
        },
        {
          "indiceString" : ""
        },
        {
          "indiceString" : ""
        },
        {
          "indiceString" : ""
        },
        {
          "indiceString" : ""
        },
        {
          "indiceString" : ""
        },
        {
          "indiceString" : ""
        },
        {
          "indiceString" : ""
        },
        {
          "indiceString" : ""
        },
        {
          "indiceString" : ""
        },
        {
          "indiceString" : ""
        },
        {
          "indiceString" : ""
        },
        {
          "indiceString" : ""
        },
        {
          "indiceString" : ""
        },
        {
          "indiceString" : ""
        },
        {
          "indiceString" : ""
        },
        {
          "indiceString" : ""
        },
        {
          "indiceString" : ""
        },
        {
          "indiceString" : ""
        },
        {
          "indiceString" : ""
        },
        {
          "indiceString" : ""
        },
        {
          "indiceString" : ""
        },
        {
          "indiceString" : ""
        },
        {
          "indiceString" : ""
        },
        {
          "indiceString" : ""
        },
        {
          "indiceString" : ""
        },
        {
          "indiceString" : ""
        },
        {
          "indiceString" : ""
        }
      ]
    },
    {
      "indices" : [
        {
          "indiceString" : "1, 1, 1, 1"
        },
        {
          "indiceString" : "14, 1, 1, 14"
        },
        {
          "indiceString" : "55, 55, 55, 55"
        },
        {
          "indiceString" : ""
        },
        {
          "indiceString" : ""
        },
        {
          "indiceString" : ""
        },
        {
          "indiceString" : ""
        },
        {
          "indiceString" : ""
        },
        {
          "indiceString" : ""
        },
        {
          "indiceString" : ""
        },
        {
          "indiceString" : ""
        },
        {
          "indiceString" : ""
        },
        {
          "indiceString" : ""
        },
        {
          "indiceString" : ""
        },
        {
          "indiceString" : ""
        },
        {
          "indiceString" : ""
        },
        {
          "indiceString" : ""
        },
        {
          "indiceString" : ""
        },
        {
          "indiceString" : ""
        },
        {
          "indiceString" : ""
        },
        {
          "indiceString" : ""
        },
        {
          "indiceString" : ""
        },
        {
          "indiceString" : ""
        },
        {
          "indiceString" : ""
        },
        {
          "indiceString" : ""
        },
        {
          "indiceString" : ""
        },
        {
          "indiceString" : ""
        },
        {
          "indiceString" : ""
        },
        {
          "indiceString" : ""
        },
        {
          "indiceString" : ""
        },
        {
          "indiceString" : ""
        },
        {
          "indiceString" : ""
        },
        {
          "indiceString" : ""
        },
        {
          "indiceString" : ""
        },
        {
          "indiceString" : ""
        },
        {
          "indiceString" : ""
        },
        {
          "indiceString" : ""
        },
        {
          "indiceString" : ""
        },
        {
          "indiceString" : ""
        },
        {
          "indiceString" : ""
        },
        {
          "indiceString" : ""
        },
        {
          "indiceString" : ""
        },
        {
          "indiceString" : ""
        },
        {
          "indiceString" : ""
        },
        {
          "indiceString" : ""
        },
        {
          "indiceString" : ""
        },
        {
          "indiceString" : ""
        },
        {
          "indiceString" : ""
        },
        {
          "indiceString" : ""
        },
        {
          "indiceString" : ""
        },
        {
          "indiceString" : ""
        },
        {
          "indiceString" : ""
        },
        {
          "indiceString" : ""
        },
        {
          "indiceString" : ""
        },
        {
          "indiceString" : ""
        },
        {
          "indiceString" : ""
        },
        {
          "indiceString" : ""
        },
        {
          "indiceString" : ""
        },
        {
          "indiceString" : ""
        },
        {
          "indiceString" : ""
        },
        {
          "indiceString" : ""
        },
        {
          "indiceString" : ""
        },
        {
          "indiceString" : ""
        },
        {
          "indiceString" : ""
        },
        {
          "indiceString" : ""
        },
        {
          "indiceString" : ""
        },
        {
          "indiceString" : ""
        },
        {
          "indiceString" : ""
        },
        {
          "indiceString" : ""
        },
        {
          "indiceString" : ""
        },
        {
          "indiceString" : ""
        },
        {
          "indiceString" : ""
        },
        {
          "indiceString" : ""
        },
        {
          "indiceString" : ""
        },
        {
          "indiceString" : ""
        }
      ]
    }
  ]
}