%YAML 1.1
%TAG !u! tag:unity3d.com,2011:
--- !u!78 &1
TagManager:
  serializedVersion: 2
  tags:
  - WallObject
  - LedgeDown
  - LedgeLeft
  - LedgeRight
  - TallGrass
  - Water
  - Fire
  layers:
  - Default
  - TransparentFX
  - Ignore Raycast
  - 
  - Water
  - UI
  - 
  - 
  - MapEditor
  - ConsoleScene
  - 
  - 
  - 
  - 
  - 
  - 
  - 
  - 
  - 
  - 
  - 
  - 
  - 
  - 
  - 
  - 
  - 
  - 
  - 
  - 
  - 
  - 
  m_SortingLayers:
  - name: Default
    uniqueID: 0
    locked: 0
  - name: UI
    uniqueID: 3195741629
    locked: 0
  - name: abovebox
    uniqueID: 2260679517
    locked: 0
